{
    "flow1": {
        "initState": "deptName",
        "states": {
            "deptName": {
                "events": {
                    "next": {
                        "nextState": "deptInfo"
                    }
                }
            },
            "deptInfo": {
                "events": {
                    "next": {
                        "nextState": "peoples"
                    },
                    "back": {
                        "nextState": "deptName"
                    }
                }
            },
            "peoples": {
                "events": {
                    "back": {
                        "nextState": "deptInfo"
                    }
                }
            }
        }
    }
}
