<svg width="17" height="16" viewBox="0 0 17 16" fill="none" xmlns="http://www.w3.org/2000/svg">
<path d="M8.02385 1C3.5239 1 1.29031 3.77905 1.02385 7.5C0.737679 11.4962 3.0239 15 8.02385 15C13.0238 15 15.5239 10.5 15.0239 7C14.5238 3.5 12.5238 1 8.02385 1Z" stroke="#656565" stroke-width="2"/>
</svg>
