<svg width="17" height="16" viewBox="0 0 17 16" fill="none" xmlns="http://www.w3.org/2000/svg">
<path d="M3.0238 8H13.0238M1.02385 7.5C1.29031 3.77905 3.5239 1 8.02385 1C12.5238 1 14.5238 3.5 15.0239 7C15.5239 10.5 13.0238 15 8.02385 15C3.0239 15 0.737679 11.4962 1.02385 7.5Z" stroke="#656565" stroke-width="2"/>
</svg>
