<svg width="647" height="719" viewBox="0 0 647 719" fill="none" xmlns="http://www.w3.org/2000/svg">
<path d="M154.5 248C154.5 149.5 277 111.5 312.5 107C347.5 107 464 140.883 464 248C464 314.5 426.5 372 389.5 402C387 427 390.5 454.5 386 470.5C379 478.5 326.5 497.5 310.5 504C294.5 499 251 481 242 477.5C236.5 470.5 230.5 438.5 236.5 403.5C227.5 397 154.5 346.5 154.5 248Z" fill="#EB953E"/>
<mask id="mask0" style="mask-type:alpha" maskUnits="userSpaceOnUse" x="312" y="86" width="116" height="419">
<path d="M312.442 504.867C312.108 378.367 311.642 121.767 312.442 107.367C330.442 97.7003 367.842 80.2669 373.442 87.8669C380.442 97.3669 424.442 205.867 427.442 262.367C430.442 318.867 420.442 341.867 388.442 401.867C392.842 416.267 396.608 440.534 397.942 450.867L382.942 485.867L312.442 504.867Z" fill="black"/>
</mask>
<g mask="url(#mask0)">
<path d="M155.942 248.367C155.942 149.867 278.442 111.867 313.942 107.367C348.942 107.367 465.442 141.25 465.442 248.367C465.442 314.867 427.942 372.367 390.942 402.367C388.442 427.367 391.942 454.867 387.442 470.867C380.442 478.867 327.942 497.867 311.942 504.367C295.942 499.367 252.442 481.367 243.442 477.867C237.942 470.867 231.942 438.867 237.942 403.867C228.942 397.367 155.942 346.867 155.942 248.367Z" fill="#E4823B"/>
</g>
<mask id="mask1" style="mask-type:alpha" maskUnits="userSpaceOnUse" x="93" y="89" width="153" height="313">
<path d="M194 264C192.5 306 215 368.5 237 402H199.5L93 297.5L161 109.5C193.5 98.5001 255.6 80.1001 244 94.5001C229.5 112.5 195.5 222 194 264Z" fill="#C4C4C4"/>
</mask>
<g mask="url(#mask1)">
<path d="M154.5 248C154.5 149.5 277 111.5 312.5 107C347.5 107 464 140.883 464 248C464 314.5 426.5 372 389.5 402C387 427 390.5 454.5 386 470.5C379 478.5 326.5 497.5 310.5 504C294.5 499 251 481 242 477.5C236.5 470.5 230.5 438.5 236.5 403.5C227.5 397 154.5 346.5 154.5 248Z" fill="#E4823B"/>
</g>
<path d="M302.436 532L305 509.765L274.744 499.882L245 490L257.308 506.306L302.436 532Z" fill="#744436"/>
<path d="M189.51 549.137C193.224 543.343 261.894 522.248 267 522C222 482 212.81 463.344 224.878 439.667C229.987 429.644 230 419 211 412C187.929 403.5 167 421.5 153.013 429.644C139.612 437.448 112.357 465.307 51.162 467.161C40.6549 467.48 28.2278 454.257 25.9061 447.108C23.5845 439.959 30.1762 433.552 23.6758 417.304C13.4629 421.39 9.47177 442.374 15.4155 465.307C35.6587 502.444 77.8117 505.506 91.2745 502.812C104.737 500.119 153.388 481.732 161.28 478.574C169.172 475.417 182.542 473.838 182.914 485.537C161.931 495.008 148.098 512.929 139 535.956C135.566 558.332 123.498 587.394 112.357 591.852C101.215 596.309 103.629 596.959 74.567 582.198C80.3247 599.282 97.9679 632.613 126.564 620.634C155.16 608.654 184.868 556.379 189.51 549.137Z" fill="#E37C3A"/>
<path d="M441.869 555.593C437.611 549.513 362.677 529.81 357.163 529.768C403.893 484.676 412.974 464.166 398.923 439.183C405.132 431.655 408.5 406.203 433.5 406.203C450.226 406.203 491.471 472.702 557.5 472C576.5 468 542 431 542 417.5C542 386.246 640 410.5 630 426.5C624 433.5 565 414.5 582.5 444C623 486.318 590 501.335 545.689 501.335C531.062 499.027 477.821 481.359 469.177 478.305C460.533 475.25 446.055 474.139 446.17 486.762C469.201 496.044 484.899 514.745 495.72 539.159C500.408 563.122 514.696 593.908 526.9 598.22C539.103 602.532 536.53 603.339 567.198 586.149C561.747 604.813 544.205 641.512 512.859 629.864C481.513 618.217 447.191 563.193 441.869 555.593Z" fill="#E37C3A"/>
<path d="M338 646.5L310.5 535V643V702L338 646.5Z" fill="#B43735"/>
<path d="M286 646.5L311 535V643V702L286 646.5Z" fill="#C73C3F"/>
<path d="M274 465.5C274 465.5 274.762 470.833 275.25 474.25M276.5 483C276.5 483 275.738 477.667 275.25 474.25M275.25 474.25C296.5 478.5 322 481.25 351.5 471.75C351.143 468.167 350.5 462.5 350.5 462.5L352.5 481" stroke="#744436" stroke-width="9"/>
<path d="M317.5 532.5L315 510L344.5 500L373.5 490L361.5 506.5L317.5 532.5Z" fill="#744436"/>
<path d="M228.445 381.771C225.558 385.115 225.927 390.167 229.271 393.054C232.615 395.942 237.667 395.573 240.555 392.229L228.445 381.771ZM282.011 382.42C282.243 386.833 286.008 390.221 290.42 389.989C294.833 389.757 298.221 385.992 297.989 381.579L282.011 382.42ZM323.815 379.775C322.587 384.019 325.031 388.456 329.276 389.684C333.52 390.913 337.956 388.468 339.185 384.224L323.815 379.775ZM372.678 383.676C373.603 387.996 377.856 390.748 382.176 389.822C386.496 388.897 389.248 384.644 388.322 380.324L372.678 383.676ZM240.555 392.229C241.744 390.852 245.004 388.559 250.281 386.22C255.294 383.998 261.227 382.131 266.848 381.125C272.654 380.085 277.262 380.12 280.055 380.914C281.364 381.286 281.798 381.691 281.868 381.766C281.894 381.794 281.9 381.804 281.912 381.833C281.927 381.869 281.991 382.04 282.011 382.42L297.989 381.579C297.773 377.481 296.297 373.777 293.567 370.851C290.948 368.043 287.628 366.433 284.429 365.524C278.207 363.755 270.783 364.165 264.027 365.375C257.085 366.619 249.925 368.877 243.798 371.592C237.934 374.191 232.006 377.648 228.445 381.771L240.555 392.229ZM339.185 384.224C339.831 381.992 341.58 379.796 344.766 378.004C347.971 376.201 352.184 375.097 356.557 374.998C366.05 374.782 371.638 378.823 372.678 383.676L388.322 380.324C384.862 364.177 368.7 358.718 356.193 359.002C349.566 359.153 342.717 360.799 336.922 364.059C331.107 367.329 325.919 372.508 323.815 379.775L339.185 384.224Z" fill="#764536"/>
<path d="M300.542 416.116L323.012 414.96" stroke="#744436" stroke-width="16"/>
<circle cx="354.944" cy="412.816" r="30" transform="rotate(-2.94613 354.944 412.816)" stroke="#744436" stroke-width="10"/>
<circle cx="270.056" cy="417.185" r="30" transform="rotate(-2.94613 270.056 417.185)" stroke="#744436" stroke-width="10"/>
<circle cx="274" cy="413" r="10" fill="#764536"/>
<circle cx="348" cy="413" r="10" fill="#764536"/>
<path d="M190.5 603.5C213 589.5 253.5 548 266 524.5C275.5 529.167 295.6 539.1 300 541.5C300 544 288.5 588.5 286.5 593C284.5 597.5 256 615.5 231 625.5C206 635.5 202 650.5 198.5 664C195 677.5 203 696.5 224 699C245 701.5 244.5 690.5 256 674.5C259 680.5 257.5 694.5 256 699C254.5 703.5 250 716.5 209 718.5C168 720.5 161 676.5 161 664C161 651.5 168 617.5 190.5 603.5Z" fill="#ED953E"/>
<path d="M433.439 602.973C410.13 588.978 368.173 547.492 355.223 524C345.381 528.665 324.558 538.595 320 540.994C320 543.493 331.914 587.978 333.986 592.477C336.058 596.975 365.583 614.969 391.482 624.966C417.381 634.962 421.525 649.957 425.151 663.453C428.777 676.948 420.489 695.941 398.734 698.441C376.978 700.94 377.496 689.944 365.583 673.949C362.475 679.947 364.029 693.942 365.583 698.441C367.137 702.939 371.799 715.935 414.273 717.934C456.748 719.933 464 675.948 464 663.453C464 650.957 456.748 616.968 433.439 602.973Z" fill="#ED953E"/>
<path d="M556.596 286.093C559.661 280.29 562.806 276.041 566.033 273.345C569.259 270.648 573.613 268.627 579.094 267.282C584.639 265.916 588.581 264.526 590.919 263.11C593.279 261.652 595.072 259.763 596.298 257.442C599.997 250.437 598.614 245.227 592.147 241.812C589.08 240.192 586.11 239.843 583.238 240.765C580.429 241.667 578.108 243.754 576.274 247.026L558.243 237.504C562.507 229.631 568.329 224.781 575.708 222.953C583.129 221.147 591.192 222.542 599.897 227.139C608.684 231.78 614.375 237.515 616.97 244.346C619.587 251.135 618.849 258.405 614.755 266.156C612.894 269.679 610.345 272.6 607.106 274.918C603.889 277.195 599.305 279.201 593.353 280.935L585.789 283.062C581.041 284.425 577.366 287.016 574.765 290.838L572.513 294.499L556.596 286.093ZM544.713 304.229C546.18 301.451 548.316 299.664 551.123 298.867C553.993 298.05 556.899 298.419 559.842 299.973C562.785 301.527 564.707 303.709 565.609 306.517C566.575 309.307 566.324 312.09 564.858 314.867C563.413 317.603 561.287 319.369 558.481 320.167C555.716 320.986 552.82 320.596 549.794 318.998C546.769 317.4 544.794 315.218 543.87 312.45C542.987 309.705 543.268 306.964 544.713 304.229Z" fill="#F44336"/>
<path d="M86.3755 353.805C82.5519 351.679 79.7649 349.521 78.0144 347.332C76.2639 345.143 74.9796 342.212 74.1616 338.539C73.3314 334.823 72.4613 332.176 71.5513 330.597C70.614 329.003 69.3807 327.781 67.8512 326.931C63.2356 324.364 59.7432 325.211 57.374 329.472C56.2502 331.493 55.9747 333.467 56.5476 335.395C57.1084 337.28 58.4661 338.857 60.6206 340.127L54.0142 352.007C48.8281 349.052 45.6791 345.102 44.5671 340.157C43.4702 335.185 44.5165 329.831 47.7058 324.095C50.9254 318.305 54.8302 314.595 59.4202 312.964C63.9829 311.317 68.8178 311.914 73.9251 314.754C76.2465 316.045 78.1565 317.787 79.6551 319.979C81.1264 322.155 82.3969 325.24 83.4668 329.232L84.776 334.304C85.6156 337.488 87.29 339.975 89.7995 341.764L92.2074 343.317L86.3755 353.805ZM98.2918 361.986C96.462 360.969 95.3015 359.519 94.8106 357.637C94.3075 355.712 94.5951 353.781 95.6733 351.842C96.7516 349.902 98.2333 348.652 100.118 348.092C101.991 347.488 103.843 347.696 105.673 348.713C107.475 349.715 108.622 351.158 109.113 353.04C109.619 354.894 109.318 356.819 108.209 358.812C107.101 360.806 105.617 362.091 103.76 362.667C101.917 363.216 100.094 362.989 98.2918 361.986Z" fill="#F44336"/>
<path d="M280.572 71.5925C279.436 67.3675 279.044 63.8647 279.397 61.084C279.749 58.3034 280.959 55.3408 283.026 52.1962C285.115 49.0134 286.409 46.5458 286.909 44.7935C287.401 43.011 287.419 41.2748 286.965 39.5848C285.594 34.4847 282.554 32.5675 277.846 33.8333C275.613 34.4337 274.004 35.6106 273.019 37.364C272.057 39.079 271.87 41.1518 272.458 43.5822L259.331 47.1119C257.841 41.3316 258.484 36.3209 261.26 32.0799C264.065 27.8307 268.636 24.8542 274.974 23.1502C281.372 21.43 286.754 21.6494 291.12 23.8084C295.479 25.9373 298.417 29.8234 299.934 35.4667C300.624 38.0318 300.704 40.6153 300.173 43.2172C299.635 45.7889 298.306 48.8484 296.185 52.3956L293.456 56.8671C291.755 59.6867 291.136 62.6199 291.599 65.6667L292.16 68.4766L280.572 71.5925ZM282.996 85.8425C282.452 83.8205 282.685 81.9782 283.694 80.3154C284.725 78.6143 286.312 77.4757 288.455 76.8996C290.597 76.3235 292.526 76.5168 294.241 77.4795C295.978 78.4039 297.119 79.8771 297.662 81.899C298.198 83.8908 297.961 85.7181 296.952 87.3809C295.973 89.0356 294.382 90.1591 292.179 90.7514C289.976 91.3437 288.021 91.1736 286.314 90.2411C284.637 89.3004 283.531 87.8342 282.996 85.8425Z" fill="#F44336"/>
</svg>
