{
    "success": true,
    "body": {
        "id": "1",
        "number": 10,
        "task": "Установить Microsoft Office",
        "status": "inProgress",
        "priority": "middle",
        "performer": "Иванов Иван Иванович",
        "deadline": 1640927340000,
        "lastChanged": 1629534740538,
        "description": "Описание"
    },
    "errors": [],
    "warnings": []
}
