// Jest Snapshot v1, https://goo.gl/fbAQLP

exports[`DeptsPage create dept 1`] = `
<div>
  <div>
    <div
      class="sc-efQSVx jAHbkm"
    >
      <div
        class="sc-cTAqQK ervfa-d"
      >
        <a
          href="/task-boss/"
        >
          <div
            class="sc-caiLqq"
          >
            <img
              class="sc-iUKqMP isCuFb"
              src="filePath"
            />
          </div>
        </a>
      </div>
      <div
        class="sc-jObWnj kctkdH"
      >
        <a
          href="/task-boss/tasks"
        >
          <div
            class="sc-dPiLbb dzvMyt"
          >
            <div
              class="sc-caiLqq"
            >
              <img
                class="sc-iUKqMP isCuFb"
                src="filePath"
              />
              <div
                class="sc-iAKWXU qoxzH"
              >
                Заявки
              </div>
            </div>
          </div>
        </a>
        <a
          href="/task-boss/depts"
        >
          <div
            class="sc-dPiLbb dzvMyt"
          >
            <div
              class="sc-caiLqq"
            >
              <img
                class="sc-iUKqMP isCuFb"
                src="filePath"
              />
              <div
                class="sc-iAKWXU qoxzH"
              >
                Отделы
              </div>
            </div>
          </div>
        </a>
      </div>
    </div>
    <div
      class="sc-bBHHxi hBPGEm"
    >
      <form
        class="sc-jgrJph cYFAIP"
      >
        <input
          class="sc-cNKqjZ fKsSum"
          data-testid="header-search-bar-input"
          placeholder="Поиск..."
        />
        <button
          class="sc-gSQFLo hfHedU"
          data-testid="header-search-bar-button"
          title="Поиск"
          type="submit"
        >
          <img
            alt="Иконка лупы"
            src="filePath"
            width="100%"
          />
        </button>
      </form>
      <div
        class="sc-AjmGg gfjjdX"
      >
        <span
          class="sc-hUpaCq fUHdnz"
        >
          Администратор
        </span>
        <img
          class="sc-khQegj ekqMgc"
          src="filePath"
        />
        <span
          class="sc-hUpaCq fUHdnz"
        >
          Выход
        </span>
      </div>
    </div>
    <div
      class="sc-gWXbKe cUzIQV"
    >
      <div>
        <div
          class="sc-ksdxgE bGqfTC"
        >
          <div
            class="sc-hBUSln dwMYAl"
          >
            <header
              class="sc-fotOHu emJGpO"
            >
              <p
                class="sc-bkkeKt crbQgV"
              >
                Новый отдел
              </p>
              <a
                class="sc-fFeiMQ kvZMcx"
                data-testid="modal-button-close"
                title="Закрыть"
              />
            </header>
            <div
              class="sc-ieecCq iOwqrS"
            >
              <form
                class="sc-ikJyIC koxBYq"
              >
                <div
                  class="sc-dlVxhl NBDcr"
                >
                  <label
                    class="sc-dJjYzT bHIvRM"
                  >
                    Родительский отдел для отдела
                  </label>
                  <select
                    data-testid="select"
                    id="dept-select"
                  >
                    <option
                      value="001"
                    >
                      Головной
                    </option>
                    <option
                      value="002"
                    >
                      Цех
                    </option>
                    <option
                      value="003"
                    >
                      Токарка
                    </option>
                    <option
                      value="004"
                    >
                      Слесарка
                    </option>
                    <option
                      value="005"
                    >
                      Отрезной
                    </option>
                    <option
                      value="006"
                    >
                      Снабжение
                    </option>
                  </select>
                </div>
                <div
                  class="sc-dlVxhl NBDcr"
                >
                  <label
                    class="sc-dJjYzT bHIvRM"
                  >
                    ФИО, контактное лицо
                  </label>
                  <select
                    data-testid="select"
                    id="peoples-select"
                  >
                    <option
                      value="1"
                    >
                      Иванов И. И.
                    </option>
                    <option
                      value="2"
                    >
                      Буйнов А. А.
                    </option>
                    <option
                      value="3"
                    >
                      Зыков А. Г.
                    </option>
                  </select>
                </div>
                <div
                  class="sc-dlVxhl NBDcr"
                >
                  <label
                    class="sc-dJjYzT bHIvRM"
                  >
                    E-mail
                  </label>
                  <input
                    class="sc-hGPBjI dfRUCx"
                    data-test="mail-input"
                    type="text"
                    value="my mail"
                  />
                  <div
                    class="sc-kfPuZi gpzPpg"
                  >
                    Неверный формат email!
                  </div>
                </div>
                <div
                  class="sc-dlVxhl NBDcr"
                >
                  <label
                    class="sc-dJjYzT bHIvRM"
                  >
                    Примечание
                  </label>
                  <input
                    class="sc-hGPBjI dfRUCx"
                    type="text"
                    value=""
                  />
                </div>
                <div
                  class="sc-jJoQJp kFebZF"
                >
                  <button
                    class="sc-kLwhqv aqsmd"
                    data-test="next-btn"
                    type="submit"
                  >
                    Далее
                  </button>
                  <button
                    class="sc-kLwhqv sc-hiCibw aqsmd gHXZwp"
                    data-test="back-btn"
                    type="button"
                  >
                    Назад
                  </button>
                </div>
              </form>
            </div>
          </div>
        </div>
      </div>
      <button
        class="sc-gsDKAQ iUcbJA sc-cidDSM bUNRcA createButton"
        id="create-dept"
      >
        Создать
      </button>
      <button
        class="sc-dkPtRN iiyIMq sc-jcFjpl bAltfJ actionButton"
      >
        Действия
      </button>
      <div
        class="sc-hKwDye cgBuir"
      >
        <table
          class="sc-eCImPb eLiBF"
        >
          <thead
            class="sc-jRQBWg jGRbwq"
          >
            <tr>
              <th
                class="sc-gKclnd irhEBh"
              />
              <th
                class="sc-gKclnd irhEBh"
              >
                Наименование
              </th>
              <th
                class="sc-gKclnd irhEBh"
              >
                Количество персонала
              </th>
              <th
                class="sc-gKclnd irhEBh"
              >
                Ответственный
              </th>
              <th
                class="sc-gKclnd irhEBh"
              >
                Задачи в работе
              </th>
              <th
                class="sc-gKclnd irhEBh"
              >
                Задачи новые
              </th>
              <th
                class="sc-gKclnd irhEBh"
              >
                Примечания
              </th>
            </tr>
          </thead>
          <tbody
            class="sc-iCfMLu ihZyvU"
          >
            <tr
              bias="1"
              class="sc-pVTFL kbYynn"
            >
              <td
                class="sc-furwcr eXaWot"
              >
                <div
                  class="sc-egiyK SJqjJ"
                >
                  <div
                    class="sc-jrQzAO cWwtaa"
                  />
                   
                  <input
                    class="sc-crHmcD dInLXP"
                    type="checkbox"
                  />
                </div>
              </td>
              <td
                class="sc-furwcr eXaWot"
              >
                Головной
              </td>
              <td
                class="sc-furwcr eXaWot"
              >
                56
              </td>
              <td
                class="sc-furwcr eXaWot"
              >
                Иванов
                 
                И
                . 
                И
                .
              </td>
              <td
                class="sc-furwcr eXaWot"
              >
                12
              </td>
              <td
                class="sc-furwcr eXaWot"
              >
                54
              </td>
              <td
                class="sc-furwcr eXaWot"
              />
            </tr>
            <tr
              bias="1"
              class="sc-pVTFL kbYynn"
            >
              <td
                class="sc-furwcr eXaWot"
              >
                <div
                  class="sc-egiyK SJqjJ"
                >
                  <span
                    role="button"
                    tabindex="0"
                  >
                    <div
                      class="sc-jrQzAO sc-kDTinF cWwtaa gjaqOg"
                    />
                  </span>
                   
                  <input
                    class="sc-crHmcD dInLXP"
                    type="checkbox"
                  />
                </div>
              </td>
              <td
                class="sc-furwcr eXaWot"
              >
                Цех
              </td>
              <td
                class="sc-furwcr eXaWot"
              >
                52
              </td>
              <td
                class="sc-furwcr eXaWot"
              >
                Буйнов
                 
                А
                . 
                А
                .
              </td>
              <td
                class="sc-furwcr eXaWot"
              >
                67
              </td>
              <td
                class="sc-furwcr eXaWot"
              >
                12
              </td>
              <td
                class="sc-furwcr eXaWot"
              />
            </tr>
            <tr
              bias="1"
              class="sc-pVTFL kbYynn"
            >
              <td
                class="sc-furwcr eXaWot"
              >
                <div
                  class="sc-egiyK SJqjJ"
                >
                  <div
                    class="sc-jrQzAO cWwtaa"
                  />
                   
                  <input
                    class="sc-crHmcD dInLXP"
                    type="checkbox"
                  />
                </div>
              </td>
              <td
                class="sc-furwcr eXaWot"
              >
                Снабжение
              </td>
              <td
                class="sc-furwcr eXaWot"
              >
                1
              </td>
              <td
                class="sc-furwcr eXaWot"
              >
                Зыков
                 
                А
                . 
                Г
                .
              </td>
              <td
                class="sc-furwcr eXaWot"
              >
                2
              </td>
              <td
                class="sc-furwcr eXaWot"
              >
                0
              </td>
              <td
                class="sc-furwcr eXaWot"
              />
            </tr>
          </tbody>
        </table>
      </div>
    </div>
  </div>
</div>
`;

exports[`DeptsPage create dept 2`] = `
<div>
  <div>
    <div
      class="sc-efQSVx jAHbkm"
    >
      <div
        class="sc-cTAqQK ervfa-d"
      >
        <a
          href="/task-boss/"
        >
          <div
            class="sc-caiLqq"
          >
            <img
              class="sc-iUKqMP isCuFb"
              src="filePath"
            />
          </div>
        </a>
      </div>
      <div
        class="sc-jObWnj kctkdH"
      >
        <a
          href="/task-boss/tasks"
        >
          <div
            class="sc-dPiLbb dzvMyt"
          >
            <div
              class="sc-caiLqq"
            >
              <img
                class="sc-iUKqMP isCuFb"
                src="filePath"
              />
              <div
                class="sc-iAKWXU qoxzH"
              >
                Заявки
              </div>
            </div>
          </div>
        </a>
        <a
          href="/task-boss/depts"
        >
          <div
            class="sc-dPiLbb dzvMyt"
          >
            <div
              class="sc-caiLqq"
            >
              <img
                class="sc-iUKqMP isCuFb"
                src="filePath"
              />
              <div
                class="sc-iAKWXU qoxzH"
              >
                Отделы
              </div>
            </div>
          </div>
        </a>
      </div>
    </div>
    <div
      class="sc-bBHHxi hBPGEm"
    >
      <form
        class="sc-jgrJph cYFAIP"
      >
        <input
          class="sc-cNKqjZ fKsSum"
          data-testid="header-search-bar-input"
          placeholder="Поиск..."
        />
        <button
          class="sc-gSQFLo hfHedU"
          data-testid="header-search-bar-button"
          title="Поиск"
          type="submit"
        >
          <img
            alt="Иконка лупы"
            src="filePath"
            width="100%"
          />
        </button>
      </form>
      <div
        class="sc-AjmGg gfjjdX"
      >
        <span
          class="sc-hUpaCq fUHdnz"
        >
          Администратор
        </span>
        <img
          class="sc-khQegj ekqMgc"
          src="filePath"
        />
        <span
          class="sc-hUpaCq fUHdnz"
        >
          Выход
        </span>
      </div>
    </div>
    <div
      class="sc-gWXbKe cUzIQV"
    >
      <div>
        <div
          class="sc-ksdxgE bGqfTC"
        >
          <div
            class="sc-hBUSln dwMYAl"
          >
            <header
              class="sc-fotOHu emJGpO"
            >
              <p
                class="sc-bkkeKt crbQgV"
              >
                Новый отдел
              </p>
              <a
                class="sc-fFeiMQ kvZMcx"
                data-testid="modal-button-close"
                title="Закрыть"
              />
            </header>
            <div
              class="sc-ieecCq iOwqrS"
            >
              <form
                class="sc-ikJyIC koxBYq"
              >
                <div
                  class="sc-bBHxTw galknD"
                >
                  <label
                    class="sc-dJjYzT bHIvRM"
                  >
                    ФИО сотрудника отдела
                  </label>
                  <select
                    data-testid="select"
                  >
                    <option
                      value="1"
                    >
                      Иванов И. И.
                    </option>
                    <option
                      value="2"
                    >
                      Буйнов А. А.
                    </option>
                    <option
                      value="3"
                    >
                      Зыков А. Г.
                    </option>
                  </select>
                  <button
                    class="sc-gsDKAQ iUcbJA sc-fKVqWL bufMZM createButton"
                    id="add-button"
                  >
                    Добавить
                  </button>
                  <table
                    class="sc-iwjdpV hWcMwt"
                  >
                    <thead
                      class="sc-cxpSdN dilewv"
                    >
                      <tr>
                        <th
                          class="sc-llYSUQ cqGOfr"
                        >
                          Фамилия
                        </th>
                        <th
                          class="sc-llYSUQ cqGOfr"
                        >
                          Имя
                        </th>
                        <th
                          class="sc-llYSUQ cqGOfr"
                        >
                          Отчество
                        </th>
                        <th
                          class="sc-llYSUQ cqGOfr"
                        >
                          Телефон
                        </th>
                        <th
                          class="sc-llYSUQ cqGOfr"
                        >
                          E-mail
                        </th>
                        <th
                          class="sc-llYSUQ cqGOfr"
                        />
                      </tr>
                    </thead>
                    <tbody
                      class="sc-iJKOTD irVRKD"
                    >
                      <tr
                        class="sc-ezbkAF eMfEkO"
                      >
                        <td
                          class="sc-giYglK ijjVCx"
                        >
                          Иванов
                        </td>
                        <td
                          class="sc-giYglK ijjVCx"
                        >
                          Иван
                        </td>
                        <td
                          class="sc-giYglK ijjVCx"
                        >
                          Иванович
                        </td>
                        <td
                          class="sc-giYglK ijjVCx"
                        />
                        <td
                          class="sc-giYglK ijjVCx"
                        />
                        <td
                          class="sc-giYglK ijjVCx"
                        >
                          <button
                            class="sc-bYoBSM lfRYio"
                            title="Удалить"
                            type="button"
                            value="1"
                          >
                            <img
                              alt="Иконка корзины"
                              src="filePath"
                              width="100%"
                            />
                          </button>
                        </td>
                      </tr>
                    </tbody>
                  </table>
                </div>
                <div
                  class="sc-jJoQJp kFebZF"
                >
                  <button
                    class="sc-kLwhqv aqsmd"
                    data-test="next-btn"
                    type="submit"
                  >
                    Создать
                  </button>
                  <button
                    class="sc-kLwhqv sc-hiCibw aqsmd gHXZwp"
                    data-test="back-btn"
                    type="button"
                  >
                    Назад
                  </button>
                </div>
              </form>
            </div>
          </div>
        </div>
      </div>
      <button
        class="sc-gsDKAQ iUcbJA sc-cidDSM bUNRcA createButton"
        id="create-dept"
      >
        Создать
      </button>
      <button
        class="sc-dkPtRN iiyIMq sc-jcFjpl bAltfJ actionButton"
      >
        Действия
      </button>
      <div
        class="sc-hKwDye cgBuir"
      >
        <table
          class="sc-eCImPb eLiBF"
        >
          <thead
            class="sc-jRQBWg jGRbwq"
          >
            <tr>
              <th
                class="sc-gKclnd irhEBh"
              />
              <th
                class="sc-gKclnd irhEBh"
              >
                Наименование
              </th>
              <th
                class="sc-gKclnd irhEBh"
              >
                Количество персонала
              </th>
              <th
                class="sc-gKclnd irhEBh"
              >
                Ответственный
              </th>
              <th
                class="sc-gKclnd irhEBh"
              >
                Задачи в работе
              </th>
              <th
                class="sc-gKclnd irhEBh"
              >
                Задачи новые
              </th>
              <th
                class="sc-gKclnd irhEBh"
              >
                Примечания
              </th>
            </tr>
          </thead>
          <tbody
            class="sc-iCfMLu ihZyvU"
          >
            <tr
              bias="1"
              class="sc-pVTFL kbYynn"
            >
              <td
                class="sc-furwcr eXaWot"
              >
                <div
                  class="sc-egiyK SJqjJ"
                >
                  <div
                    class="sc-jrQzAO cWwtaa"
                  />
                   
                  <input
                    class="sc-crHmcD dInLXP"
                    type="checkbox"
                  />
                </div>
              </td>
              <td
                class="sc-furwcr eXaWot"
              >
                Головной
              </td>
              <td
                class="sc-furwcr eXaWot"
              >
                56
              </td>
              <td
                class="sc-furwcr eXaWot"
              >
                Иванов
                 
                И
                . 
                И
                .
              </td>
              <td
                class="sc-furwcr eXaWot"
              >
                12
              </td>
              <td
                class="sc-furwcr eXaWot"
              >
                54
              </td>
              <td
                class="sc-furwcr eXaWot"
              />
            </tr>
            <tr
              bias="1"
              class="sc-pVTFL kbYynn"
            >
              <td
                class="sc-furwcr eXaWot"
              >
                <div
                  class="sc-egiyK SJqjJ"
                >
                  <span
                    role="button"
                    tabindex="0"
                  >
                    <div
                      class="sc-jrQzAO sc-kDTinF cWwtaa gjaqOg"
                    />
                  </span>
                   
                  <input
                    class="sc-crHmcD dInLXP"
                    type="checkbox"
                  />
                </div>
              </td>
              <td
                class="sc-furwcr eXaWot"
              >
                Цех
              </td>
              <td
                class="sc-furwcr eXaWot"
              >
                52
              </td>
              <td
                class="sc-furwcr eXaWot"
              >
                Буйнов
                 
                А
                . 
                А
                .
              </td>
              <td
                class="sc-furwcr eXaWot"
              >
                67
              </td>
              <td
                class="sc-furwcr eXaWot"
              >
                12
              </td>
              <td
                class="sc-furwcr eXaWot"
              />
            </tr>
            <tr
              bias="1"
              class="sc-pVTFL kbYynn"
            >
              <td
                class="sc-furwcr eXaWot"
              >
                <div
                  class="sc-egiyK SJqjJ"
                >
                  <div
                    class="sc-jrQzAO cWwtaa"
                  />
                   
                  <input
                    class="sc-crHmcD dInLXP"
                    type="checkbox"
                  />
                </div>
              </td>
              <td
                class="sc-furwcr eXaWot"
              >
                Снабжение
              </td>
              <td
                class="sc-furwcr eXaWot"
              >
                1
              </td>
              <td
                class="sc-furwcr eXaWot"
              >
                Зыков
                 
                А
                . 
                Г
                .
              </td>
              <td
                class="sc-furwcr eXaWot"
              >
                2
              </td>
              <td
                class="sc-furwcr eXaWot"
              >
                0
              </td>
              <td
                class="sc-furwcr eXaWot"
              />
            </tr>
          </tbody>
        </table>
      </div>
    </div>
  </div>
</div>
`;

exports[`DeptsPage rendering 1`] = `
<div>
  <div>
    <div
      class="sc-efQSVx jAHbkm"
    >
      <div
        class="sc-cTAqQK ervfa-d"
      >
        <a
          href="/task-boss/"
        >
          <div
            class="sc-caiLqq"
          >
            <img
              class="sc-iUKqMP isCuFb"
              src="filePath"
            />
          </div>
        </a>
      </div>
      <div
        class="sc-jObWnj kctkdH"
      >
        <a
          href="/task-boss/tasks"
        >
          <div
            class="sc-dPiLbb dzvMyt"
          >
            <div
              class="sc-caiLqq"
            >
              <img
                class="sc-iUKqMP isCuFb"
                src="filePath"
              />
              <div
                class="sc-iAKWXU qoxzH"
              >
                Заявки
              </div>
            </div>
          </div>
        </a>
        <a
          href="/task-boss/depts"
        >
          <div
            class="sc-dPiLbb dzvMyt"
          >
            <div
              class="sc-caiLqq"
            >
              <img
                class="sc-iUKqMP isCuFb"
                src="filePath"
              />
              <div
                class="sc-iAKWXU qoxzH"
              >
                Отделы
              </div>
            </div>
          </div>
        </a>
      </div>
    </div>
    <div
      class="sc-bBHHxi hBPGEm"
    >
      <form
        class="sc-jgrJph cYFAIP"
      >
        <input
          class="sc-cNKqjZ fKsSum"
          data-testid="header-search-bar-input"
          placeholder="Поиск..."
        />
        <button
          class="sc-gSQFLo hfHedU"
          data-testid="header-search-bar-button"
          title="Поиск"
          type="submit"
        >
          <img
            alt="Иконка лупы"
            src="filePath"
            width="100%"
          />
        </button>
      </form>
      <div
        class="sc-AjmGg gfjjdX"
      >
        <span
          class="sc-hUpaCq fUHdnz"
        >
          Администратор
        </span>
        <img
          class="sc-khQegj ekqMgc"
          src="filePath"
        />
        <span
          class="sc-hUpaCq fUHdnz"
        >
          Выход
        </span>
      </div>
    </div>
    <div
      class="sc-gWXbKe cUzIQV"
    >
      <button
        class="sc-gsDKAQ iUcbJA sc-cidDSM bUNRcA createButton"
        id="create-dept"
      >
        Создать
      </button>
      <button
        class="sc-dkPtRN iiyIMq sc-jcFjpl bAltfJ actionButton"
      >
        Действия
      </button>
      <div
        class="sc-hKwDye cgBuir"
      >
        <span>
          loading...
        </span>
      </div>
    </div>
  </div>
</div>
`;

exports[`DeptsPage rendering 2`] = `
<div>
  <div>
    <div
      class="sc-efQSVx jAHbkm"
    >
      <div
        class="sc-cTAqQK ervfa-d"
      >
        <a
          href="/task-boss/"
        >
          <div
            class="sc-caiLqq"
          >
            <img
              class="sc-iUKqMP isCuFb"
              src="filePath"
            />
          </div>
        </a>
      </div>
      <div
        class="sc-jObWnj kctkdH"
      >
        <a
          href="/task-boss/tasks"
        >
          <div
            class="sc-dPiLbb dzvMyt"
          >
            <div
              class="sc-caiLqq"
            >
              <img
                class="sc-iUKqMP isCuFb"
                src="filePath"
              />
              <div
                class="sc-iAKWXU qoxzH"
              >
                Заявки
              </div>
            </div>
          </div>
        </a>
        <a
          href="/task-boss/depts"
        >
          <div
            class="sc-dPiLbb dzvMyt"
          >
            <div
              class="sc-caiLqq"
            >
              <img
                class="sc-iUKqMP isCuFb"
                src="filePath"
              />
              <div
                class="sc-iAKWXU qoxzH"
              >
                Отделы
              </div>
            </div>
          </div>
        </a>
      </div>
    </div>
    <div
      class="sc-bBHHxi hBPGEm"
    >
      <form
        class="sc-jgrJph cYFAIP"
      >
        <input
          class="sc-cNKqjZ fKsSum"
          data-testid="header-search-bar-input"
          placeholder="Поиск..."
        />
        <button
          class="sc-gSQFLo hfHedU"
          data-testid="header-search-bar-button"
          title="Поиск"
          type="submit"
        >
          <img
            alt="Иконка лупы"
            src="filePath"
            width="100%"
          />
        </button>
      </form>
      <div
        class="sc-AjmGg gfjjdX"
      >
        <span
          class="sc-hUpaCq fUHdnz"
        >
          Администратор
        </span>
        <img
          class="sc-khQegj ekqMgc"
          src="filePath"
        />
        <span
          class="sc-hUpaCq fUHdnz"
        >
          Выход
        </span>
      </div>
    </div>
    <div
      class="sc-gWXbKe cUzIQV"
    >
      <button
        class="sc-gsDKAQ iUcbJA sc-cidDSM bUNRcA createButton"
        id="create-dept"
      >
        Создать
      </button>
      <button
        class="sc-dkPtRN iiyIMq sc-jcFjpl bAltfJ actionButton"
      >
        Действия
      </button>
      <div
        class="sc-hKwDye cgBuir"
      >
        <table
          class="sc-eCImPb eLiBF"
        >
          <thead
            class="sc-jRQBWg jGRbwq"
          >
            <tr>
              <th
                class="sc-gKclnd irhEBh"
              />
              <th
                class="sc-gKclnd irhEBh"
              >
                Наименование
              </th>
              <th
                class="sc-gKclnd irhEBh"
              >
                Количество персонала
              </th>
              <th
                class="sc-gKclnd irhEBh"
              >
                Ответственный
              </th>
              <th
                class="sc-gKclnd irhEBh"
              >
                Задачи в работе
              </th>
              <th
                class="sc-gKclnd irhEBh"
              >
                Задачи новые
              </th>
              <th
                class="sc-gKclnd irhEBh"
              >
                Примечания
              </th>
            </tr>
          </thead>
          <tbody
            class="sc-iCfMLu ihZyvU"
          >
            <tr
              bias="1"
              class="sc-pVTFL kbYynn"
            >
              <td
                class="sc-furwcr eXaWot"
              >
                <div
                  class="sc-egiyK SJqjJ"
                >
                  <div
                    class="sc-jrQzAO cWwtaa"
                  />
                   
                  <input
                    class="sc-crHmcD dInLXP"
                    type="checkbox"
                  />
                </div>
              </td>
              <td
                class="sc-furwcr eXaWot"
              >
                Головной
              </td>
              <td
                class="sc-furwcr eXaWot"
              >
                56
              </td>
              <td
                class="sc-furwcr eXaWot"
              >
                Иванов
                 
                И
                . 
                И
                .
              </td>
              <td
                class="sc-furwcr eXaWot"
              >
                12
              </td>
              <td
                class="sc-furwcr eXaWot"
              >
                54
              </td>
              <td
                class="sc-furwcr eXaWot"
              />
            </tr>
            <tr
              bias="1"
              class="sc-pVTFL kbYynn"
            >
              <td
                class="sc-furwcr eXaWot"
              >
                <div
                  class="sc-egiyK SJqjJ"
                >
                  <span
                    role="button"
                    tabindex="0"
                  >
                    <div
                      class="sc-jrQzAO sc-kDTinF cWwtaa gjaqOg"
                    />
                  </span>
                   
                  <input
                    class="sc-crHmcD dInLXP"
                    type="checkbox"
                  />
                </div>
              </td>
              <td
                class="sc-furwcr eXaWot"
              >
                Цех
              </td>
              <td
                class="sc-furwcr eXaWot"
              >
                52
              </td>
              <td
                class="sc-furwcr eXaWot"
              >
                Буйнов
                 
                А
                . 
                А
                .
              </td>
              <td
                class="sc-furwcr eXaWot"
              >
                67
              </td>
              <td
                class="sc-furwcr eXaWot"
              >
                12
              </td>
              <td
                class="sc-furwcr eXaWot"
              />
            </tr>
            <tr
              bias="1"
              class="sc-pVTFL kbYynn"
            >
              <td
                class="sc-furwcr eXaWot"
              >
                <div
                  class="sc-egiyK SJqjJ"
                >
                  <div
                    class="sc-jrQzAO cWwtaa"
                  />
                   
                  <input
                    class="sc-crHmcD dInLXP"
                    type="checkbox"
                  />
                </div>
              </td>
              <td
                class="sc-furwcr eXaWot"
              >
                Снабжение
              </td>
              <td
                class="sc-furwcr eXaWot"
              >
                1
              </td>
              <td
                class="sc-furwcr eXaWot"
              >
                Зыков
                 
                А
                . 
                Г
                .
              </td>
              <td
                class="sc-furwcr eXaWot"
              >
                2
              </td>
              <td
                class="sc-furwcr eXaWot"
              >
                0
              </td>
              <td
                class="sc-furwcr eXaWot"
              />
            </tr>
          </tbody>
        </table>
      </div>
    </div>
  </div>
</div>
`;

exports[`DeptsPage tree table testing 1`] = `
<table
  class="sc-eCImPb eLiBF"
>
  <thead
    class="sc-jRQBWg jGRbwq"
  >
    <tr>
      <th
        class="sc-gKclnd irhEBh"
      />
      <th
        class="sc-gKclnd irhEBh"
      >
        Наименование
      </th>
      <th
        class="sc-gKclnd irhEBh"
      >
        Количество персонала
      </th>
      <th
        class="sc-gKclnd irhEBh"
      >
        Ответственный
      </th>
      <th
        class="sc-gKclnd irhEBh"
      >
        Задачи в работе
      </th>
      <th
        class="sc-gKclnd irhEBh"
      >
        Задачи новые
      </th>
      <th
        class="sc-gKclnd irhEBh"
      >
        Примечания
      </th>
    </tr>
  </thead>
  <tbody
    class="sc-iCfMLu ihZyvU"
  >
    <tr
      bias="1"
      class="sc-pVTFL kbYynn"
    >
      <td
        class="sc-furwcr eXaWot"
      >
        <div
          class="sc-egiyK SJqjJ"
        >
          <div
            class="sc-jrQzAO cWwtaa"
          />
           
          <input
            class="sc-crHmcD dInLXP"
            type="checkbox"
          />
        </div>
      </td>
      <td
        class="sc-furwcr eXaWot"
      >
        Головной
      </td>
      <td
        class="sc-furwcr eXaWot"
      >
        56
      </td>
      <td
        class="sc-furwcr eXaWot"
      >
        Иванов
         
        И
        . 
        И
        .
      </td>
      <td
        class="sc-furwcr eXaWot"
      >
        12
      </td>
      <td
        class="sc-furwcr eXaWot"
      >
        54
      </td>
      <td
        class="sc-furwcr eXaWot"
      />
    </tr>
    <tr
      bias="1"
      class="sc-pVTFL kbYynn"
    >
      <td
        class="sc-furwcr eXaWot"
      >
        <div
          class="sc-egiyK SJqjJ"
        >
          <span
            role="button"
            tabindex="0"
          >
            <div
              class="sc-jrQzAO sc-kDTinF cWwtaa gjaqOg"
            />
          </span>
           
          <input
            class="sc-crHmcD dInLXP"
            type="checkbox"
          />
        </div>
      </td>
      <td
        class="sc-furwcr eXaWot"
      >
        Цех
      </td>
      <td
        class="sc-furwcr eXaWot"
      >
        52
      </td>
      <td
        class="sc-furwcr eXaWot"
      >
        Буйнов
         
        А
        . 
        А
        .
      </td>
      <td
        class="sc-furwcr eXaWot"
      >
        67
      </td>
      <td
        class="sc-furwcr eXaWot"
      >
        12
      </td>
      <td
        class="sc-furwcr eXaWot"
      />
    </tr>
    <tr
      bias="1"
      class="sc-pVTFL kbYynn"
    >
      <td
        class="sc-furwcr eXaWot"
      >
        <div
          class="sc-egiyK SJqjJ"
        >
          <div
            class="sc-jrQzAO cWwtaa"
          />
           
          <input
            class="sc-crHmcD dInLXP"
            type="checkbox"
          />
        </div>
      </td>
      <td
        class="sc-furwcr eXaWot"
      >
        Снабжение
      </td>
      <td
        class="sc-furwcr eXaWot"
      >
        1
      </td>
      <td
        class="sc-furwcr eXaWot"
      >
        Зыков
         
        А
        . 
        Г
        .
      </td>
      <td
        class="sc-furwcr eXaWot"
      >
        2
      </td>
      <td
        class="sc-furwcr eXaWot"
      >
        0
      </td>
      <td
        class="sc-furwcr eXaWot"
      />
    </tr>
  </tbody>
</table>
`;

exports[`DeptsPage tree table testing 2`] = `
<table
  class="sc-eCImPb eLiBF"
>
  <thead
    class="sc-jRQBWg jGRbwq"
  >
    <tr>
      <th
        class="sc-gKclnd irhEBh"
      />
      <th
        class="sc-gKclnd irhEBh"
      >
        Наименование
      </th>
      <th
        class="sc-gKclnd irhEBh"
      >
        Количество персонала
      </th>
      <th
        class="sc-gKclnd irhEBh"
      >
        Ответственный
      </th>
      <th
        class="sc-gKclnd irhEBh"
      >
        Задачи в работе
      </th>
      <th
        class="sc-gKclnd irhEBh"
      >
        Задачи новые
      </th>
      <th
        class="sc-gKclnd irhEBh"
      >
        Примечания
      </th>
    </tr>
  </thead>
  <tbody
    class="sc-iCfMLu ihZyvU"
  >
    <tr
      bias="1"
      class="sc-pVTFL kbYynn"
    >
      <td
        class="sc-furwcr eXaWot"
      >
        <div
          class="sc-egiyK SJqjJ"
        >
          <div
            class="sc-jrQzAO cWwtaa"
          />
           
          <input
            class="sc-crHmcD dInLXP"
            type="checkbox"
          />
        </div>
      </td>
      <td
        class="sc-furwcr eXaWot"
      >
        Головной
      </td>
      <td
        class="sc-furwcr eXaWot"
      >
        56
      </td>
      <td
        class="sc-furwcr eXaWot"
      >
        Иванов
         
        И
        . 
        И
        .
      </td>
      <td
        class="sc-furwcr eXaWot"
      >
        12
      </td>
      <td
        class="sc-furwcr eXaWot"
      >
        54
      </td>
      <td
        class="sc-furwcr eXaWot"
      />
    </tr>
    <tr
      bias="1"
      class="sc-pVTFL kbYynn"
    >
      <td
        class="sc-furwcr eXaWot"
      >
        <div
          class="sc-egiyK SJqjJ"
        >
          <span
            role="button"
            tabindex="0"
          >
            <div
              class="sc-jrQzAO sc-iqseJM cWwtaa bJTeAn"
            />
          </span>
           
          <input
            class="sc-crHmcD dInLXP"
            type="checkbox"
          />
        </div>
      </td>
      <td
        class="sc-furwcr eXaWot"
      >
        Цех
      </td>
      <td
        class="sc-furwcr eXaWot"
      >
        52
      </td>
      <td
        class="sc-furwcr eXaWot"
      >
        Буйнов
         
        А
        . 
        А
        .
      </td>
      <td
        class="sc-furwcr eXaWot"
      >
        67
      </td>
      <td
        class="sc-furwcr eXaWot"
      >
        12
      </td>
      <td
        class="sc-furwcr eXaWot"
      />
    </tr>
    <tr
      bias="2"
      class="sc-pVTFL cJVTml"
    >
      <td
        class="sc-furwcr eXaWot"
      >
        <div
          class="sc-egiyK ebpyAV"
        >
          <div
            class="sc-jrQzAO cWwtaa"
          />
           
          <input
            class="sc-crHmcD dInLXP"
            type="checkbox"
          />
        </div>
      </td>
      <td
        class="sc-furwcr eXaWot"
      >
        Токарка
      </td>
      <td
        class="sc-furwcr eXaWot"
      >
        6
      </td>
      <td
        class="sc-furwcr eXaWot"
      >
        Петров
         
        И
        . 
        И
        .
      </td>
      <td
        class="sc-furwcr eXaWot"
      >
        22
      </td>
      <td
        class="sc-furwcr eXaWot"
      >
        2
      </td>
      <td
        class="sc-furwcr eXaWot"
      >
        1 этаж. красный сектор
      </td>
    </tr>
    <tr
      bias="2"
      class="sc-pVTFL cJVTml"
    >
      <td
        class="sc-furwcr eXaWot"
      >
        <div
          class="sc-egiyK ebpyAV"
        >
          <div
            class="sc-jrQzAO cWwtaa"
          />
           
          <input
            class="sc-crHmcD dInLXP"
            type="checkbox"
          />
        </div>
      </td>
      <td
        class="sc-furwcr eXaWot"
      >
        Слесарка
      </td>
      <td
        class="sc-furwcr eXaWot"
      >
        34
      </td>
      <td
        class="sc-furwcr eXaWot"
      >
        Петров
         
        И
        . 
        И
        .
      </td>
      <td
        class="sc-furwcr eXaWot"
      >
        34
      </td>
      <td
        class="sc-furwcr eXaWot"
      >
        10
      </td>
      <td
        class="sc-furwcr eXaWot"
      >
        1 этаж. синий сектор
      </td>
    </tr>
    <tr
      bias="2"
      class="sc-pVTFL cJVTml"
    >
      <td
        class="sc-furwcr eXaWot"
      >
        <div
          class="sc-egiyK ebpyAV"
        >
          <div
            class="sc-jrQzAO cWwtaa"
          />
           
          <input
            class="sc-crHmcD dInLXP"
            type="checkbox"
          />
        </div>
      </td>
      <td
        class="sc-furwcr eXaWot"
      >
        Отрезной
      </td>
      <td
        class="sc-furwcr eXaWot"
      >
        12
      </td>
      <td
        class="sc-furwcr eXaWot"
      >
        Сидоров
         
        С
        . 
        В
        .
      </td>
      <td
        class="sc-furwcr eXaWot"
      >
        11
      </td>
      <td
        class="sc-furwcr eXaWot"
      >
        0
      </td>
      <td
        class="sc-furwcr eXaWot"
      >
        1 этаж. оранжевый сектор
      </td>
    </tr>
    <tr
      bias="1"
      class="sc-pVTFL kbYynn"
    >
      <td
        class="sc-furwcr eXaWot"
      >
        <div
          class="sc-egiyK SJqjJ"
        >
          <div
            class="sc-jrQzAO cWwtaa"
          />
           
          <input
            class="sc-crHmcD dInLXP"
            type="checkbox"
          />
        </div>
      </td>
      <td
        class="sc-furwcr eXaWot"
      >
        Снабжение
      </td>
      <td
        class="sc-furwcr eXaWot"
      >
        1
      </td>
      <td
        class="sc-furwcr eXaWot"
      >
        Зыков
         
        А
        . 
        Г
        .
      </td>
      <td
        class="sc-furwcr eXaWot"
      >
        2
      </td>
      <td
        class="sc-furwcr eXaWot"
      >
        0
      </td>
      <td
        class="sc-furwcr eXaWot"
      />
    </tr>
  </tbody>
</table>
`;
