// Jest Snapshot v1, https://goo.gl/fbAQLP

exports[`LoginPage rendering 1`] = `
<div>
  <div
    class="sc-jRQBWg cmvNtk"
  >
    <div
      class="sc-jrQzAO dCpqFy"
    >
      <img
        alt="logo"
        src="filePath"
      />
    </div>
    <p
      class="sc-iCfMLu hgtyPI"
    >
      Sign In
    </p>
    <form
      class="sc-gKclnd fqThyQ"
    >
      <div
        class="sc-bdvvtL dDMgil"
      >
        <label
          class="sc-gsDKAQ"
          for="login"
        />
        <input
          class="sc-dkPtRN gBeatD"
          id="login"
          name="login"
          placeholder="Login"
          type="text"
          value="string"
        />
      </div>
      <div
        class="sc-bdvvtL dDMgil"
      >
        <label
          class="sc-gsDKAQ"
          for="password"
        />
        <input
          class="sc-dkPtRN cIdanL"
          id="password"
          name="password"
          placeholder="Password"
          type="password"
          value=""
        />
        <img
          class="sc-hKwDye jIefMV"
          src="filePath"
        />
        <div
          class="sc-eCImPb hMoRyz"
        >
          Поле обязательно для заполнения
        </div>
      </div>
      <button
        class="sc-pVTFL jTUBKs"
        type="submit"
      >
        Next
      </button>
      <p
        class="sc-furwcr flrtFG"
      >
        Don ' t have an account?
        <a
          href="/task-boss/sign-up"
        >
          Sign Up
        </a>
      </p>
    </form>
  </div>
</div>
`;

exports[`LoginPage rendering 2`] = `
<div>
  <div
    class="sc-jRQBWg cmvNtk"
  >
    <div
      class="sc-jrQzAO dCpqFy"
    >
      <img
        alt="logo"
        src="filePath"
      />
    </div>
    <p
      class="sc-iCfMLu hgtyPI"
    >
      Sign In
    </p>
    <span
      style="color: red;"
    >
      невозможно найти пользователя
    </span>
    <form
      class="sc-gKclnd fqThyQ"
    >
      <div
        class="sc-bdvvtL dDMgil"
      >
        <label
          class="sc-gsDKAQ"
          for="login"
        />
        <input
          class="sc-dkPtRN gBeatD"
          id="login"
          name="login"
          placeholder="Login"
          type="text"
          value="string"
        />
      </div>
      <div
        class="sc-bdvvtL dDMgil"
      >
        <label
          class="sc-gsDKAQ"
          for="password"
        />
        <input
          class="sc-dkPtRN gBeatD"
          id="password"
          name="password"
          placeholder="Password"
          type="password"
          value="string"
        />
        <img
          class="sc-hKwDye jIefMV"
          src="filePath"
        />
      </div>
      <button
        class="sc-pVTFL jTUBKs"
        type="submit"
      >
        Next
      </button>
      <p
        class="sc-furwcr flrtFG"
      >
        Don ' t have an account?
        <a
          href="/task-boss/sign-up"
        >
          Sign Up
        </a>
      </p>
    </form>
  </div>
</div>
`;
