// Jest Snapshot v1, https://goo.gl/fbAQLP

exports[`Not found page component render 1`] = `
<div>
  <div
    class="sc-bdvvtL gHKzpL"
  >
    <img
      alt="Страница не найдена"
      class="sc-hKwDye iyydKa"
      src="filePath"
    />
    <div
      class="sc-gsDKAQ bLOzgm"
    >
      Not founD
    </div>
    <span
      class="sc-dkPtRN bdKxdo"
    >
      Вернуться на
       
      <a
        href="/task-boss/"
        style="text-decoration: none;"
      >
        <span
          class="sc-dkPtRN bdKxdo"
        >
          главную
        </span>
      </a>
    </span>
  </div>
</div>
`;
